[gd_scene load_steps=3 format=2]

[ext_resource path="res://SimplexNoiseHorizon.gd" type="Script" id=1]
[ext_resource path="res://Inform_data.tscn" type="PackedScene" id=2]

[node name="SimplexNoiseHorizon" type="Node2D"]
script = ExtResource( 1 )

[node name="Inform_data" parent="." instance=ExtResource( 2 )]
